Python Batter-up v.0.0.1

-Python dev tools , for devs who want to automate their automation a bit. 

1.  Instructions. 
2. Future Implementations , suggestions and code welcomed -  



-------------------------------------------------------------------
activate-venv-cmdprompt.bat  -- starts a venv inside of a command prompt. 

activate-venv-powershell.bat  -- starts a venv inside of a powershell. 




Notes on .bat files.  
- - .bat files complete automatic activation of venv in in python. 
.venv file has to be in the root directory for them to work, 

if  ( .venv file is named just ,  venv in root directorty , 
        remove the   "." in the path name for it to work , etc.  )
===========================================================================

---future implementstions , 
 - make migrate    .bat / .ps1 /  or other automation.  
 - migrate          .bat / .ps1 /  or other automation. 
 - runserver       .bat  / ps1 / or other automation 

------- more later after I learn docker now I suppose  - 














==================================================================
==================================================================
==================================================================EOF


README2 - 

OMG --- whoo what when and where and why are there no good 
django import extensions IN VS CODE ?  ?  
this is VScode extension -  madness I tell you . - absolute madness. 





Dear future me  , 
#log# 3,596  - 

Sometimes when you need some thing done , 
you have to do it yourself . . . .  